module robot-web-api

go 1.12

require (
	github.com/BurntSushi/toml v0.3.1 // indirect
	github.com/Joker/jade v1.0.0 // indirect
	github.com/Shopify/goreferrer v0.0.0-20181106222321-ec9c9a553398 // indirect
	github.com/Shopify/toxiproxy v2.1.4+incompatible // indirect
	github.com/ajg/form v0.0.0-20160822230020-523a5da1a92f // indirect
	github.com/aymerick/raymond v2.0.2+incompatible // indirect
	github.com/eknkc/amber v0.0.0-20171010120322-cdade1c07385 // indirect
	github.com/fatih/structs v1.1.0 // indirect
	github.com/flosch/pongo2 v0.0.0-20181225140029-79872a7b2769 // indirect
	github.com/gavv/monotime v0.0.0-20171021193802-6f8212e8d10d // indirect
	github.com/go-chassis/go-chassis v1.4.1
	github.com/go-mesh/openlogging v0.0.0-20181205082104-3d418c478b2d
	github.com/google/go-querystring v1.0.0 // indirect
	github.com/gookit/validate v1.0.2
	github.com/imkira/go-interpol v1.1.0 // indirect
	github.com/iris-contrib/blackfriday v2.0.0+incompatible // indirect
	github.com/iris-contrib/formBinder v0.0.0-20190104093907-fbd5963f41e1 // indirect
	github.com/iris-contrib/go.uuid v2.0.0+incompatible // indirect
	github.com/iris-contrib/httpexpect v0.0.0-20180314041918-ebe99fcebbce // indirect
	github.com/iris-contrib/middleware v0.0.0-20181021162728-8bd5d51b3c2e
	github.com/k0kubun/colorstring v0.0.0-20150214042306-9440f1994b88 // indirect
	github.com/kataras/golog v0.0.0-20180321173939-03be10146386 // indirect
	github.com/kataras/iris v11.1.1+incompatible
	github.com/kataras/pio v0.0.0-20190103105442-ea782b38602d // indirect
	github.com/klauspost/compress v1.4.1 // indirect
	github.com/klauspost/cpuid v1.2.0 // indirect
	github.com/mattn/go-colorable v0.1.1 // indirect
	github.com/microcosm-cc/bluemonday v1.0.2 // indirect
	github.com/moul/http2curl v1.0.0 // indirect
	github.com/onsi/ginkgo v1.8.0 // indirect
	github.com/onsi/gomega v1.4.3 // indirect
	github.com/ryanuber/columnize v2.1.0+incompatible // indirect
	github.com/sergi/go-diff v1.0.0 // indirect
	github.com/shurcooL/sanitized_anchor_name v1.0.0 // indirect
	github.com/stretchr/testify v1.3.0 // indirect
	github.com/uber-go/atomic v1.3.2 // indirect
	github.com/xeipuuv/gojsonpointer v0.0.0-20180127040702-4e3ac2762d5f // indirect
	github.com/xeipuuv/gojsonreference v0.0.0-20180127040603-bd5ef7bd5415 // indirect
	github.com/xeipuuv/gojsonschema v1.1.0 // indirect
	github.com/yalp/jsonpath v0.0.0-20180802001716-5cc68e5049a0 // indirect
	github.com/yudai/gojsondiff v1.0.0 // indirect
	github.com/yudai/golcs v0.0.0-20170316035057-ecda9a501e82 // indirect
	github.com/yudai/pp v2.0.1+incompatible // indirect
	go.uber.org/atomic v1.3.2 // indirect
)
